<?xml version="1.0" encoding="UTF-8"?>
<glyph name="edotaccent" format="2">
	<advance width="501"/>
	<unicode hex="0117"/>
	<outline>
		<component base="e"/>
		<component base="uni0307" xOffset="408"/>
	</outline>
</glyph>
