<?xml version="1.0" encoding="UTF-8"?>
<glyph name="iacute" format="2">
	<advance width="230"/>
	<unicode hex="00ED"/>
	<outline>
		<component base="dotlessi"/>
		<component base="acutecomb" xOffset="315" yOffset="-100"/>
	</outline>
	<lib>
		<dict>
			<key>com.schriftgestaltung.Glyphs.leftMetricsKey</key>
			<string>idotless</string>
		</dict>
	</lib>
</glyph>
