<?xml version="1.0" encoding="UTF-8"?>
<glyph name="r" format="2">
	<advance width="400"/>
	<unicode hex="0072"/>
	<anchor x="200" y="500" name="top"/>
	<anchor x="100" y="0" name="bottom"/>
	<outline>
		<contour>
			<point x="50" y="400" type="line"/>
			<point x="50" y="0" type="line"/>
			<point x="150" y="0" type="line"/>
			<point x="150" y="400" type="line"/>
		</contour>
		<contour>
			<point x="150" y="500" type="line"/>
			<point x="150" y="400" type="line"/>
			<point x="350" y="400" type="line"/>
			<point x="350" y="500" type="line"/>
		</contour>
	</outline>
</glyph>
