<?xml version="1.0" encoding="UTF-8"?>
<glyph name="wcircumflex" format="2">
	<advance width="600"/>
	<unicode hex="0175"/>
	<outline>
		<component base="w"/>
		<component base="uni0302" xOffset="500"/>
	</outline>
</glyph>
